<svg width="28" height="28" viewBox="0 0 28 28" fill="none" xmlns="http://www.w3.org/2000/svg">
<path d="M14.0267 5.09172C16.9337 5.11847 19.805 5.76943 22.4356 7C22.3732 7.73121 22.2751 8.46242 22.1413 9.1758V9.18471C22.0254 9.77325 21.8827 10.3796 21.7222 10.9682C20.456 15.3732 17.7451 19.2166 14.0267 21.9006V5.09172ZM13.777 0C12.1451 0 10.5222 0.151592 8.92603 0.463694V24.7185C10.4152 25.9936 12.056 27.0994 13.8037 28C13.8751 27.9643 13.9553 27.9197 14.0267 27.8841C20.1528 24.6382 24.7006 19.0382 26.6177 12.3682C26.8228 11.6369 27.0012 10.8968 27.1528 10.1389C27.447 8.56051 27.5986 6.95541 27.5986 5.35032C27.5986 4.90446 27.5897 4.46752 27.563 4.03057C23.5146 1.44459 18.8241 0.044586 14.0177 0H13.777Z" fill="#ECF5FF"/>
<path d="M5.10064 1.51593V7.89173C3.47771 8.48026 1.9172 9.22931 0.454778 10.1389C0.151593 8.56052 0 6.95542 0 5.35033C0 4.90447 0.00891802 4.46752 0.0356696 4.03058C1.63185 3.0051 3.32612 2.16689 5.10064 1.51593Z" fill="#ECF5FF"/>
<path d="M5.1007 20.6432C3.23701 18.1642 1.83701 15.3553 0.980957 12.3681C2.29179 11.6012 3.67395 10.9592 5.1007 10.442V20.6432Z" fill="#ECF5FF"/>
</svg>
